[
  {
    "id": 1,
    "first_name": "Gregg",
    "last_name": "Lacey",
    "job": "Web Developer III",
    "salary": "$3.62",
    "location": "Malta",
    "corrected_salary": 36200
  },
  {
    "id": 2,
    "first_name": "Hernando",
    "last_name": "Scargill",
    "job": "Sales Associate",
    "salary": "$4.16",
    "location": "France",
    "corrected_salary": 41600
  },
  {
    "id": 3,
    "first_name": "Loren",
    "last_name": "Doull",
    "job": "Physical Therapy Assistant",
    "salary": "$4.34",
    "location": "U.S. Virgin Islands",
    "corrected_salary": 43400
  },
  {
    "id": 4,
    "first_name": "Sherwood",
    "last_name": "Adriano",
    "job": "Web Developer II",
    "salary": "$6.46",
    "location": "Brazil",
    "corrected_salary": 64600
  },
  {
    "id": 5,
    "first_name": "Addison",
    "last_name": "Dofty",
    "job": "Structural Engineer",
    "salary": "$6.40",
    "location": "Costa Rica",
    "corrected_salary": 64000
  },
  {
    "id": 6,
    "first_name": "Jess",
    "last_name": "McUre",
    "job": "Software Test Engineer I",
    "salary": "$4.06",
    "location": "Colombia",
    "corrected_salary": 40599.99999999999
  },
  {
    "id": 7,
    "first_name": "Nevil",
    "last_name": "Matussevich",
    "job": "Safety Technician I",
    "salary": "$3.83",
    "location": "Poland",
    "corrected_salary": 38300
  },
  {
    "id": 8,
    "first_name": "Ivonne",
    "last_name": "Lamping",
    "job": "Analog Circuit Design manager",
    "salary": "$3.07",
    "location": "China",
    "corrected_salary": 30700
  },
  {
    "id": 9,
    "first_name": "Sigvard",
    "last_name": "Linggood",
    "job": "Dental Hygienist",
    "salary": "$5.34",
    "location": "Russia",
    "corrected_salary": 53400
  },
  {
    "id": 10,
    "first_name": "Edna",
    "last_name": "Mundwell",
    "job": "Biostatistician III",
    "salary": "$9.28",
    "location": "United States",
    "corrected_salary": 92800
  },
  {
    "id": 11,
    "first_name": "Cathyleen",
    "last_name": "Conklin",
    "job": "VP Quality Control",
    "salary": "$5.28",
    "location": "Brazil",
    "corrected_salary": 52800
  },
  {
    "id": 12,
    "first_name": "Stephani",
    "last_name": "Trase",
    "job": "Editor",
    "salary": "$8.49",
    "location": "Indonesia",
    "corrected_salary": 84900
  },
  {
    "id": 13,
    "first_name": "Enoch",
    "last_name": "Buddles",
    "job": "Pharmacist",
    "salary": "$3.63",
    "location": "Peru",
    "corrected_salary": 36300
  },
  {
    "id": 14,
    "first_name": "Jennilee",
    "last_name": "Watsham",
    "job": "Programmer Analyst I",
    "salary": "$9.24",
    "location": "Indonesia",
    "corrected_salary": 92400
  },
  {
    "id": 15,
    "first_name": "Tadeas",
    "last_name": "Caslake",
    "job": "Research Nurse",
    "salary": "$4.18",
    "location": "Macedonia",
    "corrected_salary": 41800
  },
  {
    "id": 16,
    "first_name": "Joell",
    "last_name": "Snasdell",
    "job": "Librarian",
    "salary": "$6.62",
    "location": "Croatia",
    "corrected_salary": 66200
  },
  {
    "id": 17,
    "first_name": "Ariana",
    "last_name": "McGillacoell",
    "job": "Chief Design Engineer",
    "salary": "$6.56",
    "location": "China",
    "corrected_salary": 65600
  },
  {
    "id": 18,
    "first_name": "Doro",
    "last_name": "Perrinchief",
    "job": "VP Sales",
    "salary": "$0.89",
    "location": "Zambia",
    "corrected_salary": 8900
  },
  {
    "id": 19,
    "first_name": "Con",
    "last_name": "Basso",
    "job": "Automation Specialist I",
    "salary": "$4.18",
    "location": "China",
    "corrected_salary": 41800
  },
  {
    "id": 20,
    "first_name": "Trixy",
    "last_name": "Ayliffe",
    "job": "Compensation Analyst",
    "salary": "$0.49",
    "location": "South Africa",
    "corrected_salary": 4900
  },
  {
    "id": 21,
    "first_name": "Luelle",
    "last_name": "Puffett",
    "job": "Executive Secretary",
    "salary": "$8.25",
    "location": "China",
    "corrected_salary": 82500
  },
  {
    "id": 22,
    "first_name": "Sylvester",
    "last_name": "Novic",
    "job": "Office Assistant I",
    "salary": "$1.65",
    "location": "South Korea",
    "corrected_salary": 16500
  },
  {
    "id": 23,
    "first_name": "Harmon",
    "last_name": "Pilch",
    "job": "Structural Analysis Engineer",
    "salary": "$0.48",
    "location": "China",
    "corrected_salary": 4800
  },
  {
    "id": 24,
    "first_name": "Nollie",
    "last_name": "Cannavan",
    "job": "Database Administrator I",
    "salary": "$4.21",
    "location": "Poland",
    "corrected_salary": 42100
  },
  {
    "id": 25,
    "first_name": "Elena",
    "last_name": "Asquez",
    "job": "Software Test Engineer III",
    "salary": "$9.42",
    "location": "Azerbaijan",
    "corrected_salary": 94200
  },
  {
    "id": 26,
    "first_name": "Scotty",
    "last_name": "Fearnside",
    "job": "Assistant Manager",
    "salary": "$2.80",
    "location": "Russia",
    "corrected_salary": 28000
  },
  {
    "id": 27,
    "first_name": "Xaviera",
    "last_name": "Wickrath",
    "job": "Administrative Assistant I",
    "salary": "$6.62",
    "location": "Thailand",
    "corrected_salary": 66200
  },
  {
    "id": 28,
    "first_name": "Basile",
    "last_name": "Luna",
    "job": "Data Coordiator",
    "salary": "$2.61",
    "location": "Chile",
    "corrected_salary": 26100
  },
  {
    "id": 29,
    "first_name": "Fayth",
    "last_name": "Lindop",
    "job": "Health Coach II",
    "salary": "$5.14",
    "location": "Indonesia",
    "corrected_salary": 51400
  },
  {
    "id": 30,
    "first_name": "Curtice",
    "last_name": "Mea",
    "job": "Senior Financial Analyst",
    "salary": "$5.00",
    "location": "Colombia",
    "corrected_salary": 50000
  }
]
